xof 0303txt 0032

Material PDX10_-_Default {
 1.000000;0.113725;0.113725;1.000000;;
 3.200000;
 0.000000;0.000000;0.000000;;
 1.000000;0.000000;0.000000;;
}

Mesh Box01 {
 8;
 -1.521164;0.760137;-5.030989;,
 1.719786;0.708984;-4.954781;,
 -1.212893;-0.750140;-5.267354;,
 1.915749;-0.754026;-5.267094;,
 1.577005;-0.658425;6.296269;,
 1.720188;0.714913;6.370481;,
 -1.079903;-0.654537;6.296373;,
 -1.342780;0.749565;6.465458;;
 12;
 3;0,1,2;,
 3;3,2,1;,
 3;4,5,6;,
 3;7,6,5;,
 3;3,4,2;,
 3;6,2,4;,
 3;1,5,3;,
 3;4,3,5;,
 3;0,7,1;,
 3;5,1,7;,
 3;2,6,0;,
 3;7,0,6;;

 MeshNormals  {
  24;
  0.025725;0.159694;-0.986831;,
  0.007487;0.195052;-0.980764;,
  0.018970;0.172830;-0.984769;,
  0.000341;0.208813;-0.977956;,
  -0.000040;-0.053955;0.998543;,
  0.009327;-0.073038;0.997286;,
  0.021829;-0.098473;0.994900;,
  0.029502;-0.114060;0.993036;,
  -0.001243;-0.999965;0.008231;,
  -0.001426;-0.999965;0.008275;,
  -0.001275;-0.999965;0.008239;,
  -0.001463;-0.999965;0.008284;,
  0.991145;0.132781;-0.000105;,
  0.995941;-0.085689;0.027552;,
  0.993671;0.112298;0.002523;,
  0.993993;-0.105253;0.029989;,
  0.015765;0.999875;0.000675;,
  0.012094;0.999927;-0.000310;,
  0.015031;0.999887;0.000478;,
  0.011296;0.999936;-0.000524;,
  -0.979317;-0.201917;0.012932;,
  -0.982238;-0.187047;0.014903;,
  -0.979557;-0.200740;0.013088;,
  -0.982480;-0.185755;0.015074;;
  12;
  3;0,1,2;,
  3;3,2,1;,
  3;4,5,6;,
  3;7,6,5;,
  3;8,9,10;,
  3;11,10,9;,
  3;12,13,14;,
  3;15,14,13;,
  3;16,17,18;,
  3;19,18,17;,
  3;20,21,22;,
  3;23,22,21;;
 }

 MeshMaterialList  {
  1;
  12;
  0,
  0,
  0,
  0,
  0,
  0,
  0,
  0,
  0,
  0,
  0,
  0;
  { PDX10_-_Default }
 }
}